<?xml version="1.0" encoding="utf-8"?>
<!-- Generator: Adobe Illustrator 15.0.0, SVG Export Plug-In . SVG Version: 6.00 Build 0)  -->
<!DOCTYPE svg PUBLIC "-//W3C//DTD SVG 1.1//EN" "http://www.w3.org/Graphics/SVG/1.1/DTD/svg11.dtd">
<svg version="1.1" id="Layer_1" xmlns="http://www.w3.org/2000/svg" xmlns:xlink="http://www.w3.org/1999/xlink" x="0px" y="0px"
	 width="32.432px" height="60.04px" viewBox="0 0 32.432 60.04" enable-background="new 0 0 32.432 60.04" xml:space="preserve">
<polyline fill="none" stroke="#B8B9BC" stroke-width="2" stroke-linecap="round" stroke-miterlimit="10" points="2,1 31.018,30.021 
	2,59.04 "/>
<polyline fill="none" stroke="#FFFFFF" stroke-width="2" stroke-linecap="round" stroke-miterlimit="10" points="1,1 30.018,30.021 
	1,59.04 "/>
</svg>
