<?xml version="1.0" encoding="utf-8"?>
<!-- Generator: Adobe Illustrator 15.0.0, SVG Export Plug-In . SVG Version: 6.00 Build 0)  -->
<!DOCTYPE svg PUBLIC "-//W3C//DTD SVG 1.1//EN" "http://www.w3.org/Graphics/SVG/1.1/DTD/svg11.dtd">
<svg version="1.1" id="Layer_1" xmlns="http://www.w3.org/2000/svg" xmlns:xlink="http://www.w3.org/1999/xlink" x="0px" y="0px"
	 width="29.354px" height="25.932px" viewBox="0 0 29.354 25.932" enable-background="new 0 0 29.354 25.932" xml:space="preserve">
<path fill="none" stroke="#5d5d5c" stroke-miterlimit="10" d="M2.439,12.948l7.643,7.645l4.559,4.558l0.072,0.073l12.205-12.202
	l-0.008-0.006c2.668-2.916,2.59-7.443-0.232-10.265c-2.902-2.903-7.605-2.903-10.51,0c-0.625,0.627-1.119,1.338-1.475,2.099
	c-0.355-0.787-0.859-1.527-1.508-2.173c-2.902-2.903-7.607-2.903-10.51,0c-2.822,2.822-2.898,7.349-0.23,10.264L2.439,12.948z"/>
</svg>
