<?xml version="1.0" encoding="utf-8"?>
<!-- Generator: Adobe Illustrator 15.0.0, SVG Export Plug-In . SVG Version: 6.00 Build 0)  -->
<!DOCTYPE svg PUBLIC "-//W3C//DTD SVG 1.1//EN" "http://www.w3.org/Graphics/SVG/1.1/DTD/svg11.dtd">
<svg version="1.1" id="Layer_1" xmlns="http://www.w3.org/2000/svg" xmlns:xlink="http://www.w3.org/1999/xlink" x="0px" y="0px"
	 width="70.178px" height="67.825px" viewBox="0 0 70.178 67.825" enable-background="new 0 0 70.178 67.825" xml:space="preserve">
<g>
	<path d="M70.178,57.225H0l14.311-16.246H5.872L19.48,25.531h-6.813L35.155,0l22.49,25.531H50.76l13.607,15.448h-8.502
		L70.178,57.225z M4.427,55.225H65.75L51.438,38.979h8.502L46.333,23.531h6.885L35.155,3.025L17.094,23.531h6.813L10.299,38.979
		h8.439L4.427,55.225z"/>
</g>
<g>
	<rect x="34.089" y="2.431" width="2" height="65.394"/>
</g>
</svg>
