<?xml version="1.0" encoding="utf-8"?>
<!-- Generator: Adobe Illustrator 15.0.0, SVG Export Plug-In . SVG Version: 6.00 Build 0)  -->
<!DOCTYPE svg PUBLIC "-//W3C//DTD SVG 1.1//EN" "http://www.w3.org/Graphics/SVG/1.1/DTD/svg11.dtd">
<svg version="1.1" id="Layer_1" xmlns="http://www.w3.org/2000/svg" xmlns:xlink="http://www.w3.org/1999/xlink" x="0px" y="0px"
	 width="17.859px" height="30.008px" viewBox="0 0 17.859 30.008" enable-background="new 0 0 17.859 30.008" xml:space="preserve">
<path fill="none" stroke="#FFFFFF" stroke-miterlimit="10" d="M16.248,16.835C15.664,15.559,10.424,5.063,8.474,1.17
	C6.255,6.158,1.38,17.232,1.102,17.953C0.717,18.951,0.5,20.01,0.5,21.08c0,4.656,3.773,8.429,8.426,8.429
	c4.658,0,8.434-3.772,8.434-8.429C17.359,19.592,16.855,18.173,16.248,16.835z"/>
</svg>
